{
  "merchantId": 114690,
  "financeType": 1,
  "transaction": {
    "actionDate": null,
    "id": 0,
    "number": "RT-20210500028",
    "date": "2021-05-07",
    "isVat": false,
    "discount": "100.00",
    "discountType": 0,
    "remark": "",
    "status": 4,
    "contact": { "id": 3854004, "contactCode": "C00001" },
    "financeTypeId": 1,
    "taxStatus": 1,
    "isDeleted": false,
    "isCreatedTaxInvoice": true,
    "referenceName": "",
    "referenceId": 0,
    "referenceType": 0,
    "referencePaymentGroupId": 0,
    "transactionSummary": {
      "subTotal": 46.73,
      "netAmount": 50,
      "whtTotal": 0,
      "vatExemptedTotal": 0,
      "zeroVatTotal": 0,
      "preVatTotal": 46.73,
      "vatTotal": 3.27,
      "subTotalForCalculateWht": 40.19,
      "isAllNoneOrNotSpecifyWht": true,
      "isServiceOnly": false,
      "sameProductVatType": 3
    },
    "transactionCurrency": {
      "currencyNetAmount": 50,
      "currencyZeroVatTotal": 0,
      "currencyPreVatTotal": 46.73,
      "currencyVatTotal": 3.27,
      "currencySubTotalForCalculateWht": 40.19,
      "currencyWhtTotal": 0,
      "currencyExchangeRates": 1,
      "currencyRatio": 1,
      "currencyVatExemptedTotal": 0,
      "fromCurrencyUid": 0,
      "toCurrencyUid": 0
    },
    "transactionItemList": [
      {
        "transactionId": 0,
        "description": "ไอติมรสส้ม : -",
        "price": 200,
        "amount": 1,
        "discount": 50,
        "vatType": 3,
        "productTemplateId": 2614160,
        "productTemplateCode": "P00001",
        "discountType": 0,
        "netAmount": 140.19,
        "accountId": 88,
        "accountCode": "410101",
        "isDescriptionOnly": false,
        "whtAmount": null,
        "whtAmountType": -2,
        "sequenceNumber": 0
      }
    ],
    "payment": {
      "paymentGroupList": [
        {
          "isPaymentActive": true,
          "paymentTransactionBankAccountList": [
            {
              "bankAccountId": 468390,
              "bankAccountCode": "CSH001",
              "isCheque": false,
              "cheque": {},
              "paymentAmount": "50.00",
              "remark": ""
            }
          ],
          "paymentTransactionChartOfAccountList": [],
          "paymentTransactionDocumentList": [],
          "whtPayment": {
            "isWht": false,
            "whtAmountType": 0,
            "whtAmount": "0.00",
            "pndType": 0
          },
          "paymentGroupDate": "2021-05-07"
        }
      ]
    },
    "fileList": [],
    "tagList": []
  },
  "language": "th"
}
